<<<<<<< HEAD
int fn1(int a, int b);
int fn2();
String fn3();
=======
int fn1(int a, int b); // suma de dos valores
int fn2(); // generador de valor aleatorio
>>>>>>> 5dde606953ff41e530ae9803e1b5fb1a7c26186a
